Lab 7: Functions and Fish
…
rescale_compare <- full_join(rescale_col_test, rescale_confirm, by = "id") 
rescale_compare <- rescale_compare |>
  select("weight", "rescale(weight)", "length", "rescale(length)")
rescale_compare

# A tibble: 18,352 × 4
    weight `rescale(weight)` length `rescale(length)`
     <dbl>             <dbl>  <dbl>             <dbl>
 1 0.0374            0.0374   0.280             0.280
 2 0.0406            0.0406   0.280             0.280
 3 0.0524            0.0524   0.277             0.277
 4 0.0588            0.0588   0.315             0.315
 5 0.0641            0.0641   0.305             0.305
 6 0.0812            0.0812   0.358             0.358
 7 0.0363            0.0363   0.261             0.261
 8 0.00855           0.00855  0.148             0.148
 9 0.0171            0.0171   0.203             0.203
10 0.00748           0.00748  0.145             0.145
# … with 18,342 more rows
…
