Lab 3 Revision
…
Q2 Fix: Placing Answers to questions in report section and not in comment section.

3. What are the rows of this data set?

Code

# you may want to use code to answer this question

# https://conservancy.umn.edu/bitstream/handle/11299/116327/5/explanationAAEHiphopChesley.txt
# Gets frequency of each "word"
hiphop |>
  count(word)

# A tibble: 64 × 2
   word              n
   <chr>         <int>
 1 [to be] ghost   168
 2 5-0             168
 3 A-town          168
 4 ashy            168
 5 ay yo trip      168
 6 ballin'         168
 7 beezy           168
 8 bones           168
 9 boo             168
10 boughie         168
# … with 54 more rows
…
Data Summaries

6. How many unique AAE words were studied in this data set?

Code

# code chunk for Q6
# Displays each unique word
hiphop_clean |>
  distinct(word)

# A tibble: 64 × 1
   word         
   <chr>        
 1 [to be] ghost
 2 5-0          
 3 A-town       
 4 ashy         
 5 ay yo trip   
 6 ballin'      
 7 beezy        
 8 bones        
 9 boo          
10 boughie      
# … with 54 more rows
…
Code

# Calculates 5 number summary for age
new_hiphop |>
  summarize(age)

# A tibble: 168 × 1
     age
   <dbl>
 1    20
 2    17
 3    41
 4    18
 5    18
 6    19
 7    18
 8    18
 9    19
10    19
# … with 158 more rows
…
Useful variables: word, familiarity, sex, age, ethnic

11. People below the age of 20.

Code

# code chunk for Q11
# Determines which word was the most familiar
hiphop_clean |>
  filter(age < 20, 
         familiarity == 5) |>
  count(word, sort = TRUE)

# A tibble: 59 × 2
   word             n
   <chr>        <int>
 1 off the hook    93
 2 feel me         91
 3 hella           71
 4 boo             64
 5 what it do      56
 6 finna           44
 7 ashy            43
 8 chedda          41
 9 5-0             40
10 make it rain    38
# … with 49 more rows

Code

# Determines which words was the least familiar
hiphop_clean |>
  filter(age < 20, 
         familiarity == 1) |>
  count(word, sort = TRUE)

# A tibble: 64 × 2
   word                  n
   <chr>             <int>
 1 catch the vapors    117
 2 domino              116
 3 face gator          115
 4 rollie              115
 5 break someone out   114
 6 dukey rope          114
 7 grip grain          114
 8 humming             114
 9 saditty             114
10 plex                113
# … with 54 more rows
Q11 Answer: For people below the age of 20, the word that was most familiar was “off the hook” which 93 people marked with a familiarity of 5. The word that was the least familiar was “catch the vapors” which had 117 people mark it with a familiarity of 1.

12. Non-white women.

Code

# code chunk for Q12
# Determines which words was the most familiar
hiphop_clean |>
  filter(ethnic != "white", 
         sex == "Female",
         familiarity == 5) |>
  count(word, sort = TRUE)

# A tibble: 55 × 2
   word             n
   <chr>        <int>
 1 feel me         20
 2 off the hook    15
 3 boo             14
 4 what it do      13
 5 chedda          12
 6 ashy            11
 7 hella           11
 8 A-town          10
 9 finna           10
10 make it rain    10
# … with 45 more rows

Code

# Determines which words was the least familiar
hiphop_clean |>
  filter(ethnic != "white", 
         sex == "Female",
         familiarity == 1) |>
  count(word, sort = TRUE)

# A tibble: 64 × 2
   word                  n
   <chr>             <int>
 1 break someone out    26
 2 dukey rope           26
 3 plex                 26
 4 rollie               26
 5 catch the vapors     25
 6 crossroads           25
 7 dollar cab           25
 8 domino               25
 9 face gator           25
10 grip grain           25
# … with 54 more rows
…
13. White men above the age of 30.

Code

# code chunk for Q13
# Determines which words was the most familiar
hiphop_clean |>
  filter(ethnic == "white", 
         sex == "Male",
         age > 30,
         familiarity == 5) |>
  count(word, sort = TRUE)

# A tibble: 31 × 2
   word             n
   <chr>        <int>
 1 5-0              4
 2 A-town           3
 3 feel me          3
 4 hard             3
 5 off the hook     3
 6 ashy             2
 7 bones            2
 8 chedda           2
 9 dun              2
10 grip             2
# … with 21 more rows

Code

# Determines which words was the least familiar
hiphop_clean |>
  filter(ethnic == "white", 
         sex == "Male",
         age > 30,
         familiarity == 1) |>
  count(word, sort = TRUE)

# A tibble: 64 × 2
   word                  n
   <chr>             <int>
 1 ay yo trip            5
 2 beezy                 5
 3 break someone out     5
 4 catch the vapors      5
 5 crossroads            5
 6 crump                 5
 7 dap                   5
 8 dollar cab            5
 9 domino                5
10 duckets               5
# … with 54 more rows
…
